<?xml version="1.0" encoding="UTF-8"?>
<svg xmlns="http://www.w3.org/2000/svg" xmlns:xlink="http://www.w3.org/1999/xlink" width="58px" height="97px" viewBox="0 0 58 97" version="1.1">
<g id="surface1">
<path style=" stroke:none;fill-rule:evenodd;fill:rgb(9.411765%,81.176471%,67.058824%);fill-opacity:1;" d="M 15.699219 35.609375 L 15.710938 19.921875 C 15.710938 18.109375 16.398438 16.414062 17.652344 15.148438 C 19.042969 13.757812 21.039062 12.960938 23.136719 12.960938 C 24.777344 12.960938 26.351562 13.46875 27.574219 14.367188 C 29.054688 15.460938 29.976562 17.113281 30.167969 19 C 30.167969 19.042969 31.015625 27.222656 31.777344 34.546875 C 37.101562 31.417969 40.691406 25.628906 40.691406 19 C 40.691406 9.050781 32.632812 0.984375 22.6875 0.984375 C 12.742188 0.984375 4.683594 9.050781 4.683594 19 C 4.671875 26.460938 9.214844 32.875 15.699219 35.609375 Z M 16.417969 94.851562 C 16.417969 96.03125 17.382812 96.996094 18.5625 96.996094 L 50.242188 96.996094 C 51.417969 96.996094 52.382812 96.03125 52.382812 94.851562 L 52.382812 89.9375 L 16.417969 89.9375 Z M 54.667969 51.488281 C 56.660156 52.132812 58 53.988281 58 56.078125 L 57.976562 73.171875 C 57.976562 75.710938 57.292969 78.199219 55.996094 80.375 L 52.363281 86.519531 L 16.398438 86.519531 C 6.386719 76.375 1.308594 65.558594 0.535156 60.914062 C 0 57.730469 2.21875 55.597656 4.683594 55.597656 C 6.085938 55.597656 7.578125 56.28125 8.691406 57.878906 C 9.046875 58.394531 9.429688 58.953125 9.859375 59.5625 C 13.027344 64.152344 16.273438 64.246094 17.757812 64.289062 L 17.8125 64.292969 L 17.84375 64.292969 C 17.886719 64.292969 17.941406 64.292969 17.984375 64.28125 L 18.003906 64.28125 C 18.519531 64.207031 18.894531 63.777344 18.894531 63.261719 L 18.914062 19.910156 C 18.90625 17.476562 21.046875 16.167969 23.128906 16.167969 C 24.960938 16.167969 26.738281 17.1875 26.964844 19.332031 C 26.964844 19.375 29.730469 46.128906 29.738281 46.214844 L 29.738281 46.226562 L 29.75 46.226562 C 30.511719 45.546875 31.777344 45.152344 33.222656 45.152344 C 33.757812 45.152344 34.316406 45.207031 34.882812 45.3125 C 36.714844 45.679688 48.71875 49.546875 54.667969 51.488281 Z M 54.667969 51.488281 "/>
</g>
</svg>
