<?xml version="1.0" encoding="UTF-8"?>
<svg xmlns="http://www.w3.org/2000/svg" xmlns:xlink="http://www.w3.org/1999/xlink" width="99px" height="76px" viewBox="0 0 99 76" version="1.1">
<g id="surface1">
<path style=" stroke:none;fill-rule:evenodd;fill:rgb(100%,100%,100%);fill-opacity:1;" d="M 81.363281 6.277344 L 19.1875 6.277344 L 19.1875 17.308594 L 13.710938 17.308594 L 13.710938 0.984375 L 86.839844 0.984375 L 86.839844 30.675781 L 81.363281 30.675781 Z M 38.796875 75.996094 L 0 75.996094 L 0 19.714844 L 38.796875 19.714844 Z M 18.347656 71.363281 C 18.347656 72.359375 19.183594 73.175781 20.21875 73.175781 C 21.25 73.175781 22.089844 72.359375 22.085938 71.363281 C 22.085938 70.367188 21.25 69.558594 20.21875 69.558594 C 19.183594 69.558594 18.347656 70.367188 18.347656 71.363281 Z M 33.191406 25.136719 L 5.609375 25.136719 L 5.609375 66.664062 L 33.1875 66.664062 Z M 41.296875 42.316406 L 70.109375 42.316406 L 70.109375 47.613281 L 41.296875 47.613281 Z M 72.941406 75.117188 L 72.941406 32.730469 L 99 32.730469 L 99 75.117188 Z M 87.179688 35.09375 C 87.179688 34.757812 86.898438 34.488281 86.550781 34.488281 C 86.203125 34.488281 85.917969 34.757812 85.917969 35.09375 C 85.917969 35.429688 86.203125 35.707031 86.550781 35.707031 C 86.898438 35.707031 87.179688 35.429688 87.179688 35.09375 Z M 90.296875 36.519531 L 82.800781 36.519531 L 82.800781 37.101562 L 90.296875 37.101562 Z M 84.800781 71.832031 C 84.800781 72.632812 85.476562 73.289062 86.304688 73.289062 C 87.132812 73.289062 87.808594 72.632812 87.808594 71.832031 C 87.808594 71.027344 87.132812 70.378906 86.304688 70.378906 C 85.472656 70.378906 84.800781 71.03125 84.800781 71.832031 Z M 77.125 68.328125 C 80.480469 68.355469 88.050781 68.332031 94.820312 68.296875 L 94.820312 39.183594 L 77.125 39.1875 Z M 41.296875 49.777344 L 70.109375 49.777344 L 70.109375 57.296875 L 41.296875 57.296875 L 41.296875 54.394531 L 60.609375 54.394531 L 60.609375 52.988281 L 41.296875 52.988281 Z M 41.296875 49.777344 "/>
</g>
</svg>
